{
  "server": {
    "port": 4000
  },
  "agent":{
    "error_count":2
  },
  "nlp":{
    "platform":"Humonics",
    "version":"v1"
  },
  "anthem":{
    "base_url":"https://162.95.243.150/",
    "token":{
      "url":"v1/oauth/accesstoken",
      "apikey":"dzCAhhNYEnd2bjvANuAILyxfzyRlAKK8"
    },
    "summary":{
      "url":"icr/v2/caremanagement/utilizationmanagementinquiry/summary",
      "apikey":"dzCAhhNYEnd2bjvANuAILyxfzyRlAKK8"
    },
    "hippa_verification":{
      "url":"v1/caremanagement/findmember",
      "apikey":"dzCAhhNYEnd2bjvANuAILyxfzyRlAKK8"
    },
    "url-4":"",
    "url-5":"",
    "url-6":""
  },
  "mongodb": {

    "url": "mongodb://localhost:27017/bright_health"


  }
}